Starting Test for 
Transistor testing lab
12:10:42 Sep 28 2018


Please wait for device to measure data until it stops printing *
PWM Init 

* * * * * * * * * * * * * * * * Reading complete, hit anykey to continue print 

Print Column in the following order: 

Duty, PD0, PE1, PD2, PD3 

refV = 3934
0,  39.81,  3895.12,  3898.81,  2.38 
1,  42.12,  3893.50,  3896.06,  1.94 
2,  81.12,  3893.75,  3899.00,  2.19 
3,  119.00,  3893.31,  3899.06,  3.12 
4,  156.00,  3893.31,  3899.38,  2.12 
5,  195.81,  3894.69,  3899.50,  2.06 
6,  234.88,  3894.12,  3900.19,  2.00 
7,  276.62,  3893.25,  3899.31,  1.81 
8,  315.75,  3895.06,  3899.06,  1.94 
9,  356.06,  3895.56,  3900.62,  1.75 
10,  396.12,  3897.31,  3901.88,  1.88 
11,  434.25,  3898.31,  3902.81,  2.31 
12,  473.50,  3900.81,  3900.94,  2.06 
13,  512.50,  3898.69,  3901.50,  1.56 
14,  550.94,  3900.12,  3901.62,  3.12 
15,  588.88,  3900.38,  3903.38,  2.00 
16,  627.06,  3898.31,  3902.31,  1.50 
17,  666.94,  3898.50,  3901.38,  1.69 
18,  707.38,  3898.00,  3899.94,  1.38 
19,  748.31,  3899.62,  3900.31,  2.06 
20,  787.12,  3898.69,  3900.50,  1.06 
21,  826.31,  3898.44,  3899.81,  1.75 
22,  865.31,  3899.62,  3900.06,  2.69 
23,  901.38,  3899.62,  3900.94,  2.25 
24,  938.50,  3899.81,  3903.38,  2.00 
25,  975.81,  3900.75,  3903.19,  2.69 
26,  1015.62,  3899.44,  3899.81,  1.81 
27,  1062.06,  3900.75,  3898.00,  1.75 
28,  1102.81,  3899.81,  3894.19,  2.00 
29,  1142.38,  3900.69,  3903.44,  1.81 
30,  1182.12,  3900.19,  3905.69,  1.38 
31,  1220.69,  3900.19,  3904.62,  1.88 
32,  1258.94,  3901.06,  3904.50,  2.31 
33,  1294.81,  3899.88,  3902.94,  1.00 
34,  1332.94,  3900.12,  3903.88,  2.44 
35,  1370.00,  3900.50,  3903.31,  1.38 
36,  1409.81,  3901.25,  3903.06,  2.31 
37,  1455.56,  3900.50,  3902.19,  1.56 
38,  1495.62,  3899.75,  3902.38,  1.25 
39,  1536.56,  3900.44,  3902.56,  1.50 
40,  1574.94,  3900.19,  3903.88,  2.44 
41,  1614.00,  3899.06,  3903.38,  1.69 
42,  1651.81,  3898.62,  3903.50,  1.62 
43,  1689.38,  3899.50,  3903.12,  1.44 
44,  1725.50,  3903.69,  3905.06,  1.62 
45,  1763.56,  3901.50,  3903.44,  2.31 
46,  1803.12,  3901.06,  3904.19,  1.50 
47,  1844.06,  3904.06,  3904.06,  1.88 
48,  1886.25,  3904.94,  3904.69,  2.81 
49,  1928.31,  3902.38,  3905.62,  1.88 
50,  1969.12,  3902.12,  3903.25,  1.75 
51,  2006.94,  3901.12,  3903.00,  2.06 
52,  2046.56,  3902.06,  3904.12,  1.69 
53,  2082.88,  3901.38,  3904.25,  1.75 
54,  2120.31,  3906.56,  3905.88,  1.50 
55,  2157.81,  3908.94,  3905.56,  1.94 
56,  2196.12,  3906.94,  3906.31,  1.50 
57,  2236.69,  3905.94,  3904.19,  2.25 
58,  2279.19,  3905.31,  3905.12,  0.69 
59,  2321.62,  3905.56,  3904.00,  2.06 
60,  2359.56,  3904.50,  3906.06,  0.81 
61,  2397.62,  3904.75,  3904.62,  2.81 
62,  2435.06,  3904.75,  3907.38,  1.88 
63,  2471.31,  3902.94,  3906.75,  0.94 
64,  2513.31,  3905.81,  3908.19,  1.62 
65,  2550.75,  3903.88,  3906.44,  2.12 
66,  2588.00,  3904.06,  3906.38,  1.62 
67,  2630.44,  3905.25,  3906.50,  1.25 
68,  2671.81,  3904.56,  3903.69,  2.81 
69,  2712.50,  3905.75,  3904.50,  2.19 
70,  2752.06,  3904.94,  3902.19,  2.12 
71,  2788.75,  3905.00,  3905.88,  1.62 
72,  2828.25,  3904.94,  3911.06,  1.38 
73,  2864.19,  3905.50,  3912.94,  2.38 
74,  2906.38,  3904.81,  3912.56,  2.06 
75,  2944.06,  3905.12,  3909.94,  2.56 
76,  2982.62,  3905.25,  3908.94,  1.75 
77,  3022.25,  3905.25,  3907.31,  2.06 
78,  3064.31,  3906.12,  3907.62,  1.56 
79,  3106.25,  3906.62,  3906.81,  1.62 
80,  3144.25,  3905.06,  3906.88,  1.62 
81,  3182.56,  3906.12,  3906.88,  1.62 
82,  3223.12,  3905.94,  3908.12,  2.44 
83,  3260.25,  3906.56,  3908.75,  1.81 
84,  3298.44,  3906.31,  3908.25,  4.12 
85,  3337.12,  3906.06,  3909.81,  2.12 
86,  3375.06,  3905.88,  3909.31,  2.50 
87,  3415.38,  3904.31,  3907.19,  1.62 
88,  3454.56,  3903.00,  3906.00,  1.50 
89,  3496.00,  3907.38,  3905.38,  1.50 
90,  3535.75,  3906.88,  3904.50,  2.12 
91,  3574.00,  3908.19,  3908.00,  2.00 
92,  3612.50,  3909.31,  3908.75,  2.12 
93,  3652.19,  3908.81,  3909.44,  2.69 
94,  3691.38,  3909.50,  3911.25,  1.19 
95,  3731.94,  3908.88,  3909.12,  1.88 
96,  3770.50,  3909.38,  3911.12,  1.50 
97,  3810.69,  3907.81,  3909.44,  1.38 
98,  3849.00,  3908.94,  3907.75,  1.69 
99,  3887.06,  3908.00,  3910.38,  1.88 
100,  3906.00,  3908.06,  3912.12,  2.94 
